^D:\DOCUMENTOS PERSONALES\ADRIAN\MASTER\TFM\PRUEBAS\JNI EN ODK\ODK_C++\JNI_ODK_SIM\JNI_ODK_SIM\STDAFX.CPP
D:\DOCUMENTOS PERSONALES\ADRIAN\MASTER\TFM\PRUEBAS\JNI EN ODK\ODK_C++\JNI_ODK_SIM\JNI_ODK_SIM\RELEASE\JNI_ODK_SIM.PCH
D:\DOCUMENTOS PERSONALES\ADRIAN\MASTER\TFM\PRUEBAS\JNI EN ODK\ODK_C++\JNI_ODK_SIM\JNI_ODK_SIM\RELEASE\VC140.PDB
D:\DOCUMENTOS PERSONALES\ADRIAN\MASTER\TFM\PRUEBAS\JNI EN ODK\ODK_C++\JNI_ODK_SIM\JNI_ODK_SIM\RELEASE\STDAFX.OBJ
^D:\DOCUMENTOS PERSONALES\ADRIAN\MASTER\TFM\PRUEBAS\JNI EN ODK\ODK_C++\JNI_ODK_SIM\JNI_ODK_SIM\DLLMAIN.CPP|D:\DOCUMENTOS PERSONALES\ADRIAN\MASTER\TFM\PRUEBAS\JNI EN ODK\ODK_C++\JNI_ODK_SIM\JNI_ODK_SIM\JNI_ODK_SIM.CPP|D:\DOCUMENTOS PERSONALES\ADRIAN\MASTER\TFM\PRUEBAS\JNI EN ODK\ODK_C++\JNI_ODK_SIM\JNI_ODK_SIM\SRC_ODK_HELPERS\ODK_CPUREADDATA.CPP|D:\DOCUMENTOS PERSONALES\ADRIAN\MASTER\TFM\PRUEBAS\JNI EN ODK\ODK_C++\JNI_ODK_SIM\JNI_ODK_SIM\SRC_ODK_HELPERS\ODK_CPUREADWRITEDATA.CPP|D:\DOCUMENTOS PERSONALES\ADRIAN\MASTER\TFM\PRUEBAS\JNI EN ODK\ODK_C++\JNI_ODK_SIM\JNI_ODK_SIM\SRC_ODK_HELPERS\ODK_STRINGHELPER.CPP
D:\DOCUMENTOS PERSONALES\ADRIAN\MASTER\TFM\PRUEBAS\JNI EN ODK\ODK_C++\JNI_ODK_SIM\JNI_ODK_SIM\RELEASE\VC140.PDB
D:\DOCUMENTOS PERSONALES\ADRIAN\MASTER\TFM\PRUEBAS\JNI EN ODK\ODK_C++\JNI_ODK_SIM\JNI_ODK_SIM\RELEASE\ODK_STRINGHELPER.OBJ
D:\DOCUMENTOS PERSONALES\ADRIAN\MASTER\TFM\PRUEBAS\JNI EN ODK\ODK_C++\JNI_ODK_SIM\JNI_ODK_SIM\RELEASE\ODK_CPUREADWRITEDATA.OBJ
D:\DOCUMENTOS PERSONALES\ADRIAN\MASTER\TFM\PRUEBAS\JNI EN ODK\ODK_C++\JNI_ODK_SIM\JNI_ODK_SIM\RELEASE\ODK_CPUREADDATA.OBJ
D:\DOCUMENTOS PERSONALES\ADRIAN\MASTER\TFM\PRUEBAS\JNI EN ODK\ODK_C++\JNI_ODK_SIM\JNI_ODK_SIM\RELEASE\DLLMAIN.OBJ
^D:\DOCUMENTOS PERSONALES\ADRIAN\MASTER\TFM\PRUEBAS\JNI EN ODK\ODK_C++\JNI_ODK_SIM\JNI_ODK_SIM\DLLMAIN.CPP
D:\DOCUMENTOS PERSONALES\ADRIAN\MASTER\TFM\PRUEBAS\JNI EN ODK\ODK_C++\JNI_ODK_SIM\JNI_ODK_SIM\RELEASE\DLLMAIN.OBJ
^D:\DOCUMENTOS PERSONALES\ADRIAN\MASTER\TFM\PRUEBAS\JNI EN ODK\ODK_C++\JNI_ODK_SIM\JNI_ODK_SIM\JNI_ODK_SIM.CPP|D:\DOCUMENTOS PERSONALES\ADRIAN\MASTER\TFM\PRUEBAS\JNI EN ODK\ODK_C++\JNI_ODK_SIM\JNI_ODK_SIM\SRC_ODK_HELPERS\ODK_CPUREADDATA.CPP|D:\DOCUMENTOS PERSONALES\ADRIAN\MASTER\TFM\PRUEBAS\JNI EN ODK\ODK_C++\JNI_ODK_SIM\JNI_ODK_SIM\SRC_ODK_HELPERS\ODK_CPUREADWRITEDATA.CPP|D:\DOCUMENTOS PERSONALES\ADRIAN\MASTER\TFM\PRUEBAS\JNI EN ODK\ODK_C++\JNI_ODK_SIM\JNI_ODK_SIM\SRC_ODK_HELPERS\ODK_STRINGHELPER.CPP
D:\DOCUMENTOS PERSONALES\ADRIAN\MASTER\TFM\PRUEBAS\JNI EN ODK\ODK_C++\JNI_ODK_SIM\JNI_ODK_SIM\RELEASE\VC140.PDB
D:\DOCUMENTOS PERSONALES\ADRIAN\MASTER\TFM\PRUEBAS\JNI EN ODK\ODK_C++\JNI_ODK_SIM\JNI_ODK_SIM\RELEASE\ODK_STRINGHELPER.OBJ
D:\DOCUMENTOS PERSONALES\ADRIAN\MASTER\TFM\PRUEBAS\JNI EN ODK\ODK_C++\JNI_ODK_SIM\JNI_ODK_SIM\RELEASE\ODK_CPUREADWRITEDATA.OBJ
D:\DOCUMENTOS PERSONALES\ADRIAN\MASTER\TFM\PRUEBAS\JNI EN ODK\ODK_C++\JNI_ODK_SIM\JNI_ODK_SIM\RELEASE\ODK_CPUREADDATA.OBJ
D:\DOCUMENTOS PERSONALES\ADRIAN\MASTER\TFM\PRUEBAS\JNI EN ODK\ODK_C++\JNI_ODK_SIM\JNI_ODK_SIM\RELEASE\JNI_ODK_SIM.OBJ
^D:\DOCUMENTOS PERSONALES\ADRIAN\MASTER\TFM\PRUEBAS\JNI EN ODK\ODK_C++\JNI_ODK_SIM\JNI_ODK_SIM\SRC_ODK_HELPERS\ODK_CPUREADDATA.CPP
D:\DOCUMENTOS PERSONALES\ADRIAN\MASTER\TFM\PRUEBAS\JNI EN ODK\ODK_C++\JNI_ODK_SIM\JNI_ODK_SIM\RELEASE\VC140.PDB
^D:\DOCUMENTOS PERSONALES\ADRIAN\MASTER\TFM\PRUEBAS\JNI EN ODK\ODK_C++\JNI_ODK_SIM\JNI_ODK_SIM\SRC_ODK_HELPERS\ODK_CPUREADWRITEDATA.CPP
D:\DOCUMENTOS PERSONALES\ADRIAN\MASTER\TFM\PRUEBAS\JNI EN ODK\ODK_C++\JNI_ODK_SIM\JNI_ODK_SIM\RELEASE\VC140.PDB
^D:\DOCUMENTOS PERSONALES\ADRIAN\MASTER\TFM\PRUEBAS\JNI EN ODK\ODK_C++\JNI_ODK_SIM\JNI_ODK_SIM\SRC_ODK_HELPERS\ODK_STRINGHELPER.CPP
D:\DOCUMENTOS PERSONALES\ADRIAN\MASTER\TFM\PRUEBAS\JNI EN ODK\ODK_C++\JNI_ODK_SIM\JNI_ODK_SIM\RELEASE\VC140.PDB
^D:\DOCUMENTOS PERSONALES\ADRIAN\MASTER\TFM\PRUEBAS\JNI EN ODK\ODK_C++\JNI_ODK_SIM\JNI_ODK_SIM\SRC_CG_PRIV\ODK_EXECUTION.CPP
D:\DOCUMENTOS PERSONALES\ADRIAN\MASTER\TFM\PRUEBAS\JNI EN ODK\ODK_C++\JNI_ODK_SIM\JNI_ODK_SIM\RELEASE\VC140.PDB
D:\DOCUMENTOS PERSONALES\ADRIAN\MASTER\TFM\PRUEBAS\JNI EN ODK\ODK_C++\JNI_ODK_SIM\JNI_ODK_SIM\RELEASE\ODK_EXECUTION.OBJ
^D:\DOCUMENTOS PERSONALES\ADRIAN\MASTER\TFM\PRUEBAS\JNI EN ODK\ODK_C++\JNI_ODK_SIM\JNI_ODK_SIM\JNI_ODK_SIM.CPP
D:\DOCUMENTOS PERSONALES\ADRIAN\MASTER\TFM\PRUEBAS\JNI EN ODK\ODK_C++\JNI_ODK_SIM\JNI_ODK_SIM\RELEASE\VC140.PDB
D:\DOCUMENTOS PERSONALES\ADRIAN\MASTER\TFM\PRUEBAS\JNI EN ODK\ODK_C++\JNI_ODK_SIM\JNI_ODK_SIM\RELEASE\JNI_ODK_SIM.OBJ
