^D:\DOCUMENTOS PERSONALES\ADRIAN\MASTER\TFM\PRUEBAS\JNI EN ODK\ODK_C++\JNI_ODK_SIM\JNI_ODK_SIM\RELEASE\DLLMAIN.OBJ|D:\DOCUMENTOS PERSONALES\ADRIAN\MASTER\TFM\PRUEBAS\JNI EN ODK\ODK_C++\JNI_ODK_SIM\JNI_ODK_SIM\RELEASE\JNI_ODK_SIM.OBJ|D:\DOCUMENTOS PERSONALES\ADRIAN\MASTER\TFM\PRUEBAS\JNI EN ODK\ODK_C++\JNI_ODK_SIM\JNI_ODK_SIM\RELEASE\JNI_ODK_SIM.RES|D:\DOCUMENTOS PERSONALES\ADRIAN\MASTER\TFM\PRUEBAS\JNI EN ODK\ODK_C++\JNI_ODK_SIM\JNI_ODK_SIM\RELEASE\ODK_CPUREADDATA.OBJ|D:\DOCUMENTOS PERSONALES\ADRIAN\MASTER\TFM\PRUEBAS\JNI EN ODK\ODK_C++\JNI_ODK_SIM\JNI_ODK_SIM\RELEASE\ODK_CPUREADWRITEDATA.OBJ|D:\DOCUMENTOS PERSONALES\ADRIAN\MASTER\TFM\PRUEBAS\JNI EN ODK\ODK_C++\JNI_ODK_SIM\JNI_ODK_SIM\RELEASE\ODK_EXECUTION.OBJ|D:\DOCUMENTOS PERSONALES\ADRIAN\MASTER\TFM\PRUEBAS\JNI EN ODK\ODK_C++\JNI_ODK_SIM\JNI_ODK_SIM\RELEASE\ODK_STRINGHELPER.OBJ|D:\DOCUMENTOS PERSONALES\ADRIAN\MASTER\TFM\PRUEBAS\JNI EN ODK\ODK_C++\JNI_ODK_SIM\JNI_ODK_SIM\RELEASE\STDAFX.OBJ
D:\DOCUMENTOS PERSONALES\ADRIAN\MASTER\TFM\PRUEBAS\JNI EN ODK\ODK_C++\JNI_ODK_SIM\RELEASE\JNI_ODK_SIM.ILK
D:\DOCUMENTOS PERSONALES\ADRIAN\MASTER\TFM\PRUEBAS\JNI EN ODK\ODK_C++\JNI_ODK_SIM\RELEASE\JNI_ODK_SIM.DLL
D:\DOCUMENTOS PERSONALES\ADRIAN\MASTER\TFM\PRUEBAS\JNI EN ODK\ODK_C++\JNI_ODK_SIM\RELEASE\JNI_ODK_SIM.PDB
